{
  "license": "CC-BY-SA-3.0",
  "copyright": "Taken from tgstation at commit https://github.com/tgstation/tgstation/commit/4f6190e2895e09116663ef282d3ce1d8b35c032e",
  "size": { "x": 32, "y": 32 },
  "states": [
    {
      "name": "icon"
    },
    {
      "name": "icon-flash"
    },
    {
      "name": "off-equipped-HELMET",
      "directions": 4
    },
    {
      "name": "on-equipped-HELMET",
      "directions": 4
    }
  ]
}
